%YAML 1.1
%TAG !u! tag:unity3d.com,2011:
--- !u!74 &7400000
AnimationClip:
  m_ObjectHideFlags: 0
  m_PrefabParentObject: {fileID: 0}
  m_PrefabInternal: {fileID: 0}
  m_Name: PlayerMoveFront
  serializedVersion: 6
  m_Legacy: 0
  m_Compressed: 0
  m_UseHighQualityCurve: 1
  m_RotationCurves:
  - curve:
      serializedVersion: 2
      m_Curve:
      - time: 0
        value: {x: 0.13052595, y: 0.00000018416063, z: -0.00000041343725, w: 0.9914449}
        inSlope: {x: 1.1585999, y: 0.0000028622487, z: -0.0000049587557, w: -0.21081376}
        outSlope: {x: 1.1585999, y: 0.0000028622487, z: -0.0000049587557, w: -0.21081376}
        tangentMode: 0
      - time: 0.083333336
        value: {x: 0.22707593, y: 0.00000042268135, z: -0.0000008266669, w: 0.9738771}
        inSlope: {x: 0.76975644, y: 0.0000018859657, z: -0.0000033350168, w: -0.15311372}
        outSlope: {x: 0.76975644, y: 0.0000018859657, z: -0.0000033350168, w: -0.15311372}
        tangentMode: 0
      - time: 0.16666667
        value: {x: 0.2588187, y: 0.00000049848825, z: -0.0000009692734, w: 0.96592593}
        inSlope: {x: -1.0190328, y: -0.0000030273027, z: 0.000003994392, w: 0.14690138}
        outSlope: {x: -1.0190328, y: -0.0000030273027, z: 0.000003994392, w: 0.14690138}
        tangentMode: 0
      - time: 0.25
        value: {x: 0.057237156, y: -0.00000008186907, z: -0.000000160935, w: 0.99836063}
        inSlope: {x: -2.3360693, y: -0.0000049501346, z: 0.0000086712425, w: 0.15311374}
        outSlope: {x: -2.3360693, y: -0.0000049501346, z: 0.0000086712425, w: 0.15311374}
        tangentMode: 0
      - time: 0.33333334
        value: {x: -0.13052621, y: -0.00000032653418, z: 0.0000004759337, w: 0.9914449}
        inSlope: {x: -0.5887919, y: -0.0000007172986, z: 0.0000018625151, w: 0.0048168898}
        outSlope: {x: -0.5887919, y: -0.0000007172986, z: 0.0000018625151, w: 0.0048168898}
        tangentMode: 0
      - time: 0.4166667
        value: {x: -0.04089486, y: -0.00000020141886, z: 0.00000014948424, w: 0.99916345}
        inSlope: {x: 1.5663123, y: 0.0000031684522, z: -0.0000061283395, w: -0.000000014901161}
        outSlope: {x: 1.5663123, y: 0.0000031684522, z: -0.0000061283395, w: -0.000000014901161}
        tangentMode: 0
      - time: 0.5
        value: {x: 0.13052581, y: 0.00000020154114, z: -0.0000005454561, w: 0.9914449}
        inSlope: {x: 2.0570486, y: 0.000004835521, z: -0.000008339286, w: -0.09262278}
        outSlope: {x: 2.0570486, y: 0.000004835521, z: -0.000008339286, w: -0.09262278}
        tangentMode: 0
      m_PreInfinity: 2
      m_PostInfinity: 2
      m_RotationOrder: 4
    path: Model_States/Character_Front/LLeg
  - curve:
      serializedVersion: 2
      m_Curve:
      - time: 0
        value: {x: 0.13052595, y: 0.00000018416063, z: -0.00000041343725, w: 0.9914449}
        inSlope: {x: 0.64222705, y: 0.0000015137913, z: -0.0000027216677, w: -0.102324486}
        outSlope: {x: 0.64222705, y: 0.0000015137913, z: -0.0000027216677, w: -0.102324486}
        tangentMode: 0
      - time: 0.083333336
        value: {x: 0.18404487, y: 0.0000003103099, z: -0.0000006402429, w: 0.98291785}
        inSlope: {x: 0.72229046, y: 0.0000019148918, z: -0.0000030816027, w: -0.14060318}
        outSlope: {x: 0.72229046, y: 0.0000019148918, z: -0.0000030816027, w: -0.14060318}
        tangentMode: 0
      - time: 0.16666667
        value: {x: 0.2509077, y: 0.00000050330925, z: -0.0000009270377, w: 0.968011}
        inSlope: {x: 0.6315642, y: 0.0000018774169, z: -0.000002728627, w: -0.15408611}
        outSlope: {x: 0.6315642, y: 0.0000018774169, z: -0.000002728627, w: -0.15408611}
        tangentMode: 0
      - time: 0.25
        value: {x: 0.28930557, y: 0.0000006232127, z: -0.000001095014, w: 0.9572368}
        inSlope: {x: 0.04746601, y: -0.000000028925854, z: -0.00000025341433, w: -0.012510553}
        outSlope: {x: 0.04746601, y: -0.000000028925854, z: -0.00000025341433, w: -0.012510553}
        tangentMode: 0
      - time: 0.33333334
        value: {x: 0.2588187, y: 0.00000049848825, z: -0.0000009692734, w: 0.96592593}
        inSlope: {x: -1.1721622, y: -0.0000036899896, z: 0.000004742415, w: 0.23004338}
        outSlope: {x: -1.1721622, y: -0.0000036899896, z: 0.000004742415, w: 0.23004338}
        tangentMode: 0
      - time: 0.4166667
        value: {x: 0.093945175, y: 0.000000008214341, z: -0.00000030461138, w: 0.9955774}
        inSlope: {x: -2.3360696, y: -0.0000049501346, z: 0.0000086712425, w: 0.15311371}
        outSlope: {x: -2.3360696, y: -0.0000049501346, z: 0.0000086712425, w: 0.15311371}
        tangentMode: 0
      - time: 0.5
        value: {x: -0.13052621, y: -0.00000032653418, z: 0.0000004759337, w: 0.9914449}
        inSlope: {x: -2.6936574, y: -0.000004016983, z: 0.000009366543, w: -0.049590122}
        outSlope: {x: -2.6936574, y: -0.000004016983, z: 0.000009366543, w: -0.049590122}
        tangentMode: 0
      m_PreInfinity: 2
      m_PostInfinity: 2
      m_RotationOrder: 4
    path: Model_States/Character_Front/RLeg
  - curve:
      serializedVersion: 2
      m_Curve:
      - time: 0
        value: {x: -0.13052621, y: -0.0000001945153, z: 0.0000004933143, w: 0.9914449}
        inSlope: {x: -0.19445103, y: -0.00000008296621, z: 0.00000058126875, w: -0.027220488}
        outSlope: {x: -0.19445103, y: -0.00000008296621, z: 0.00000058126875, w: -0.027220488}
        tangentMode: 0
      - time: 0.083333336
        value: {x: -0.14673047, y: -0.00000020142915, z: 0.00000054175337, w: 0.9891765}
        inSlope: {x: 0, y: 0, z: 0, w: 0}
        outSlope: {x: 0, y: 0, z: 0, w: 0}
        tangentMode: 0
      - time: 0.16666667
        value: {x: -0.13052621, y: -0.0000001945153, z: 0.0000004933143, w: 0.9914449}
        inSlope: {x: 0.9785522, y: 0.0000010088644, z: -0.0000032472522, w: 0.0641377}
        outSlope: {x: 0.9785522, y: 0.0000010088644, z: -0.0000032472522, w: 0.0641377}
        tangentMode: 0
      - time: 0.25
        value: {x: 0.016361566, y: -0.000000033285094, z: 5.4473265e-10, w: 0.9998661}
        inSlope: {x: 1.566313, y: 0.0000022720556, z: -0.000005440509, w: 0.000000011175871}
        outSlope: {x: 1.566313, y: 0.0000022720556, z: -0.000005440509, w: 0.000000011175871}
        tangentMode: 0
      - time: 0.33333334
        value: {x: 0.13052595, y: 0.00000018416063, z: -0.00000041343725, w: 0.9914449}
        inSlope: {x: 0.098143935, y: -0.00000025109148, z: 0.000000061343826, w: -0.002409339}
        outSlope: {x: 0.098143935, y: -0.00000025109148, z: 0.000000061343826, w: -0.002409339}
        tangentMode: 0
      - time: 0.4166667
        value: {x: 0.03271888, y: -0.00000007513368, z: 0.000000010768742, w: 0.9994646}
        inSlope: {x: -1.566313, y: -0.0000029598853, z: 0.000006128339, w: -0.000000018626451}
        outSlope: {x: -1.566313, y: -0.0000029598853, z: 0.000006128339, w: -0.000000018626451}
        tangentMode: 0
      - time: 0.5
        value: {x: -0.13052621, y: -0.00000030915356, z: 0.0000006079526, w: 0.9914449}
        inSlope: {x: -1.9589416, y: -0.0000028082393, z: 0.0000071662075, w: -0.09623625}
        outSlope: {x: -1.9589416, y: -0.0000028082393, z: 0.0000071662075, w: -0.09623625}
        tangentMode: 0
      m_PreInfinity: 2
      m_PostInfinity: 2
      m_RotationOrder: 4
    path: Model_States/Character_Front/RArm
  - curve:
      serializedVersion: 2
      m_Curve:
      - time: 0
        value: {x: 0.13052595, y: 0.00000018416063, z: -0.00000041343725, w: 0.9914449}
        inSlope: {x: 0.19445229, y: 0.00000047299312, z: -0.0000007504934, w: -0.027220488}
        outSlope: {x: 0.19445229, y: 0.00000047299312, z: -0.0000007504934, w: -0.027220488}
        tangentMode: 0
      - time: 0.083333336
        value: {x: 0.1467303, y: 0.00000022357672, z: -0.00000047597837, w: 0.9891765}
        inSlope: {x: 0.0000008046627, y: 3.410605e-13, z: 0, w: 0}
        outSlope: {x: 0.0000008046627, y: 3.410605e-13, z: 0, w: 0}
        tangentMode: 0
      - time: 0.16666667
        value: {x: 0.13052608, y: 0.00000018416068, z: -0.00000041343725, w: 0.9914449}
        inSlope: {x: -0.97855246, y: -0.0000019283361, z: 0.0000035949797, w: 0.0641377}
        outSlope: {x: -0.97855246, y: -0.0000019283361, z: 0.0000035949797, w: 0.0641377}
        tangentMode: 0
      - time: 0.25
        value: {x: -0.01636175, y: -0.000000097812624, z: 0.00000012318489, w: 0.9998661}
        inSlope: {x: -1.5663137, y: -0.000002272056, z: 0.000005440509, w: 0.000000011175871}
        outSlope: {x: -1.5663137, y: -0.000002272056, z: 0.000005440509, w: 0.000000011175871}
        tangentMode: 0
      - time: 0.33333334
        value: {x: -0.13052621, y: -0.0000001945153, z: 0.0000004933143, w: 0.9914449}
        inSlope: {x: -0.09814477, y: 0.0000002734671, z: 0.00000034741902, w: -0.002409339}
        outSlope: {x: -0.09814477, y: 0.0000002734671, z: 0.00000034741902, w: -0.002409339}
        tangentMode: 0
      - time: 0.4166667
        value: {x: -0.03271921, y: -0.000000052234768, z: 0.00000018108807, w: 0.9994646}
        inSlope: {x: 1.5663123, y: 0.000003064169, z: -0.0000055447936, w: -0.000000018626451}
        outSlope: {x: 1.5663123, y: 0.000003064169, z: -0.0000055447936, w: -0.000000018626451}
        tangentMode: 0
      - time: 0.5
        value: {x: 0.13052581, y: 0.00000031617947, z: -0.0000004308178, w: 0.9914449}
        inSlope: {x: 1.9589407, y: 0.000004420972, z: -0.0000073428723, w: -0.09623625}
        outSlope: {x: 1.9589407, y: 0.000004420972, z: -0.0000073428723, w: -0.09623625}
        tangentMode: 0
      m_PreInfinity: 2
      m_PostInfinity: 2
      m_RotationOrder: 4
    path: Model_States/Character_Front/LArm
  m_CompressedRotationCurves: []
  m_EulerCurves: []
  m_PositionCurves:
  - curve:
      serializedVersion: 2
      m_Curve:
      - time: 0
        value: {x: 0.7, y: -0.31999993, z: -0.08000002}
        inSlope: {x: 0, y: -0.00000035762787, z: -0.00000031292439}
        outSlope: {x: 0, y: -0.00000035762787, z: -0.00000031292439}
        tangentMode: 0
      - time: 0.16666667
        value: {x: 0.7, y: -0.32, z: -0.08000007}
        inSlope: {x: 0, y: -0.00000035762787, z: -0.00000031292439}
        outSlope: {x: 0, y: -0.00000035762787, z: -0.00000031292439}
        tangentMode: 0
      m_PreInfinity: 2
      m_PostInfinity: 2
      m_RotationOrder: 4
    path: Model_States/Character_Front/RArm
  - curve:
      serializedVersion: 2
      m_Curve:
      - time: 0
        value: {x: -0.263, y: -1.1650001, z: -0.078999996}
        inSlope: {x: -0.00000017881393, y: -0.0000071525574, z: -0.000002861023}
        outSlope: {x: -0.00000017881393, y: -0.0000071525574, z: -0.000002861023}
        tangentMode: 0
      - time: 0.16666667
        value: {x: -0.26300004, y: -1.1650013, z: -0.07900047}
        inSlope: {x: -0.00000017881393, y: -0.0000071525574, z: -0.000002861023}
        outSlope: {x: -0.00000017881393, y: -0.0000071525574, z: -0.000002861023}
        tangentMode: 0
      m_PreInfinity: 2
      m_PostInfinity: 2
      m_RotationOrder: 4
    path: Model_States/Character_Front/LLeg
  - curve:
      serializedVersion: 2
      m_Curve:
      - time: 0
        value: {x: -0.7, y: -0.3199999, z: -0.07999994}
        inSlope: {x: 0, y: -0.00000035762787, z: -0.00000008940697}
        outSlope: {x: 0, y: -0.00000035762787, z: -0.00000008940697}
        tangentMode: 0
      - time: 0.16666667
        value: {x: -0.7, y: -0.31999996, z: -0.07999995}
        inSlope: {x: 0, y: -0.00000035762787, z: -0.00000008940697}
        outSlope: {x: 0, y: -0.00000035762787, z: -0.00000008940697}
        tangentMode: 0
      m_PreInfinity: 2
      m_PostInfinity: 2
      m_RotationOrder: 4
    path: Model_States/Character_Front/LArm
  - curve:
      serializedVersion: 2
      m_Curve:
      - time: 0
        value: {x: 0.34600002, y: -1.1649997, z: -0.079000145}
        inSlope: {x: -0.00000008940697, y: -0.00000035762787, z: 0.0000002682209}
        outSlope: {x: -0.00000008940697, y: -0.00000035762787, z: 0.0000002682209}
        tangentMode: 0
      - time: 0.33333334
        value: {x: 0.346, y: -1.1649998, z: -0.079000056}
        inSlope: {x: -0.00000008940697, y: -0.00000035762787, z: 0.0000002682209}
        outSlope: {x: -0.00000008940697, y: -0.00000035762787, z: 0.0000002682209}
        tangentMode: 0
      m_PreInfinity: 2
      m_PostInfinity: 2
      m_RotationOrder: 4
    path: Model_States/Character_Front/RLeg
  m_ScaleCurves: []
  m_FloatCurves:
  - curve:
      serializedVersion: 2
      m_Curve:
      - time: 0
        value: 1
        inSlope: Infinity
        outSlope: Infinity
        tangentMode: 31
      m_PreInfinity: 2
      m_PostInfinity: 2
      m_RotationOrder: 4
    attribute: m_IsActive
    path: Model_States/Character_Front
    classID: 1
    script: {fileID: 0}
  m_PPtrCurves: []
  m_SampleRate: 12
  m_WrapMode: 0
  m_Bounds:
    m_Center: {x: 0, y: 0, z: 0}
    m_Extent: {x: 0, y: 0, z: 0}
  m_ClipBindingConstant:
    genericBindings:
    - path: 116096426
      attribute: 1
      script: {fileID: 0}
      classID: 4
      customType: 0
      isPPtrCurve: 0
    - path: 116096426
      attribute: 2
      script: {fileID: 0}
      classID: 4
      customType: 0
      isPPtrCurve: 0
    - path: 3056426246
      attribute: 2
      script: {fileID: 0}
      classID: 4
      customType: 0
      isPPtrCurve: 0
    - path: 1537450973
      attribute: 2
      script: {fileID: 0}
      classID: 4
      customType: 0
      isPPtrCurve: 0
    - path: 3949298545
      attribute: 2
      script: {fileID: 0}
      classID: 4
      customType: 0
      isPPtrCurve: 0
    - path: 1155365380
      attribute: 2086281974
      script: {fileID: 0}
      classID: 1
      customType: 0
      isPPtrCurve: 0
    - path: 1537450973
      attribute: 1
      script: {fileID: 0}
      classID: 4
      customType: 0
      isPPtrCurve: 0
    - path: 3949298545
      attribute: 1
      script: {fileID: 0}
      classID: 4
      customType: 0
      isPPtrCurve: 0
    - path: 3056426246
      attribute: 1
      script: {fileID: 0}
      classID: 4
      customType: 0
      isPPtrCurve: 0
    pptrCurveMapping: []
  m_AnimationClipSettings:
    serializedVersion: 2
    m_AdditiveReferencePoseClip: {fileID: 0}
    m_AdditiveReferencePoseTime: 0
    m_StartTime: 0
    m_StopTime: 0.5
    m_OrientationOffsetY: 0
    m_Level: 0
    m_CycleOffset: 0
    m_HasAdditiveReferencePose: 0
    m_LoopTime: 0
    m_LoopBlend: 0
    m_LoopBlendOrientation: 0
    m_LoopBlendPositionY: 0
    m_LoopBlendPositionXZ: 0
    m_KeepOriginalOrientation: 0
    m_KeepOriginalPositionY: 1
    m_KeepOriginalPositionXZ: 0
    m_HeightFromFeet: 0
    m_Mirror: 0
  m_EditorCurves:
  - curve:
      serializedVersion: 2
      m_Curve:
      - time: 0
        value: 1
        inSlope: Infinity
        outSlope: Infinity
        tangentMode: 31
      m_PreInfinity: 2
      m_PostInfinity: 2
      m_RotationOrder: 4
    attribute: m_IsActive
    path: Model_States/Character_Front
    classID: 1
    script: {fileID: 0}
  - curve:
      serializedVersion: 2
      m_Curve:
      - time: 0
        value: 0.7
        inSlope: 0
        outSlope: 0
        tangentMode: 10
      - time: 0.16666667
        value: 0.7
        inSlope: 0
        outSlope: 0
        tangentMode: 10
      m_PreInfinity: 2
      m_PostInfinity: 2
      m_RotationOrder: 4
    attribute: m_LocalPosition.x
    path: Model_States/Character_Front/RArm
    classID: 4
    script: {fileID: 0}
  - curve:
      serializedVersion: 2
      m_Curve:
      - time: 0
        value: -0.31999993
        inSlope: -0.00000035762787
        outSlope: -0.00000035762787
        tangentMode: 10
      - time: 0.16666667
        value: -0.32
        inSlope: -0.00000035762787
        outSlope: -0.00000035762787
        tangentMode: 10
      m_PreInfinity: 2
      m_PostInfinity: 2
      m_RotationOrder: 4
    attribute: m_LocalPosition.y
    path: Model_States/Character_Front/RArm
    classID: 4
    script: {fileID: 0}
  - curve:
      serializedVersion: 2
      m_Curve:
      - time: 0
        value: -0.08000002
        inSlope: -0.00000031292439
        outSlope: -0.00000031292439
        tangentMode: 10
      - time: 0.16666667
        value: -0.08000007
        inSlope: -0.00000031292439
        outSlope: -0.00000031292439
        tangentMode: 10
      m_PreInfinity: 2
      m_PostInfinity: 2
      m_RotationOrder: 4
    attribute: m_LocalPosition.z
    path: Model_States/Character_Front/RArm
    classID: 4
    script: {fileID: 0}
  - curve:
      serializedVersion: 2
      m_Curve:
      - time: 0
        value: -0.263
        inSlope: -0.00000017881393
        outSlope: -0.00000017881393
        tangentMode: 10
      - time: 0.16666667
        value: -0.26300004
        inSlope: -0.00000017881393
        outSlope: -0.00000017881393
        tangentMode: 10
      m_PreInfinity: 2
      m_PostInfinity: 2
      m_RotationOrder: 4
    attribute: m_LocalPosition.x
    path: Model_States/Character_Front/LLeg
    classID: 4
    script: {fileID: 0}
  - curve:
      serializedVersion: 2
      m_Curve:
      - time: 0
        value: -1.1650001
        inSlope: -0.0000071525574
        outSlope: -0.0000071525574
        tangentMode: 10
      - time: 0.16666667
        value: -1.1650013
        inSlope: -0.0000071525574
        outSlope: -0.0000071525574
        tangentMode: 10
      m_PreInfinity: 2
      m_PostInfinity: 2
      m_RotationOrder: 4
    attribute: m_LocalPosition.y
    path: Model_States/Character_Front/LLeg
    classID: 4
    script: {fileID: 0}
  - curve:
      serializedVersion: 2
      m_Curve:
      - time: 0
        value: -0.078999996
        inSlope: -0.000002861023
        outSlope: -0.000002861023
        tangentMode: 10
      - time: 0.16666667
        value: -0.07900047
        inSlope: -0.000002861023
        outSlope: -0.000002861023
        tangentMode: 10
      m_PreInfinity: 2
      m_PostInfinity: 2
      m_RotationOrder: 4
    attribute: m_LocalPosition.z
    path: Model_States/Character_Front/LLeg
    classID: 4
    script: {fileID: 0}
  - curve:
      serializedVersion: 2
      m_Curve:
      - time: 0
        value: -0.7
        inSlope: 0
        outSlope: 0
        tangentMode: 10
      - time: 0.16666667
        value: -0.7
        inSlope: 0
        outSlope: 0
        tangentMode: 10
      m_PreInfinity: 2
      m_PostInfinity: 2
      m_RotationOrder: 4
    attribute: m_LocalPosition.x
    path: Model_States/Character_Front/LArm
    classID: 4
    script: {fileID: 0}
  - curve:
      serializedVersion: 2
      m_Curve:
      - time: 0
        value: -0.3199999
        inSlope: -0.00000035762787
        outSlope: -0.00000035762787
        tangentMode: 10
      - time: 0.16666667
        value: -0.31999996
        inSlope: -0.00000035762787
        outSlope: -0.00000035762787
        tangentMode: 10
      m_PreInfinity: 2
      m_PostInfinity: 2
      m_RotationOrder: 4
    attribute: m_LocalPosition.y
    path: Model_States/Character_Front/LArm
    classID: 4
    script: {fileID: 0}
  - curve:
      serializedVersion: 2
      m_Curve:
      - time: 0
        value: -0.07999994
        inSlope: -0.00000008940697
        outSlope: -0.00000008940697
        tangentMode: 10
      - time: 0.16666667
        value: -0.07999995
        inSlope: -0.00000008940697
        outSlope: -0.00000008940697
        tangentMode: 10
      m_PreInfinity: 2
      m_PostInfinity: 2
      m_RotationOrder: 4
    attribute: m_LocalPosition.z
    path: Model_States/Character_Front/LArm
    classID: 4
    script: {fileID: 0}
  - curve:
      serializedVersion: 2
      m_Curve:
      - time: 0
        value: 0.34600002
        inSlope: -0.00000008940697
        outSlope: -0.00000008940697
        tangentMode: 10
      - time: 0.33333334
        value: 0.346
        inSlope: -0.00000008940697
        outSlope: -0.00000008940697
        tangentMode: 10
      m_PreInfinity: 2
      m_PostInfinity: 2
      m_RotationOrder: 4
    attribute: m_LocalPosition.x
    path: Model_States/Character_Front/RLeg
    classID: 4
    script: {fileID: 0}
  - curve:
      serializedVersion: 2
      m_Curve:
      - time: 0
        value: -1.1649997
        inSlope: -0.00000035762787
        outSlope: -0.00000035762787
        tangentMode: 10
      - time: 0.33333334
        value: -1.1649998
        inSlope: -0.00000035762787
        outSlope: -0.00000035762787
        tangentMode: 10
      m_PreInfinity: 2
      m_PostInfinity: 2
      m_RotationOrder: 4
    attribute: m_LocalPosition.y
    path: Model_States/Character_Front/RLeg
    classID: 4
    script: {fileID: 0}
  - curve:
      serializedVersion: 2
      m_Curve:
      - time: 0
        value: -0.079000145
        inSlope: 0.0000002682209
        outSlope: 0.0000002682209
        tangentMode: 10
      - time: 0.33333334
        value: -0.079000056
        inSlope: 0.0000002682209
        outSlope: 0.0000002682209
        tangentMode: 10
      m_PreInfinity: 2
      m_PostInfinity: 2
      m_RotationOrder: 4
    attribute: m_LocalPosition.z
    path: Model_States/Character_Front/RLeg
    classID: 4
    script: {fileID: 0}
  - curve:
      serializedVersion: 2
      m_Curve:
      - time: 0
        value: 0.13052595
        inSlope: 1.1585999
        outSlope: 1.1585999
        tangentMode: 0
      - time: 0.083333336
        value: 0.22707593
        inSlope: 0.76975644
        outSlope: 0.76975644
        tangentMode: 0
      - time: 0.16666667
        value: 0.2588187
        inSlope: -1.0190328
        outSlope: -1.0190328
        tangentMode: 0
      - time: 0.25
        value: 0.057237156
        inSlope: -2.3360693
        outSlope: -2.3360693
        tangentMode: 0
      - time: 0.33333334
        value: -0.13052621
        inSlope: -0.5887919
        outSlope: -0.5887919
        tangentMode: 0
      - time: 0.4166667
        value: -0.04089486
        inSlope: 1.5663123
        outSlope: 1.5663123
        tangentMode: 0
      - time: 0.5
        value: 0.13052581
        inSlope: 2.0570486
        outSlope: 2.0570486
        tangentMode: 0
      m_PreInfinity: 2
      m_PostInfinity: 2
      m_RotationOrder: 4
    attribute: m_LocalRotation.x
    path: Model_States/Character_Front/LLeg
    classID: 4
    script: {fileID: 0}
  - curve:
      serializedVersion: 2
      m_Curve:
      - time: 0
        value: 0.00000018416063
        inSlope: 0.0000028622487
        outSlope: 0.0000028622487
        tangentMode: 0
      - time: 0.083333336
        value: 0.00000042268135
        inSlope: 0.0000018859657
        outSlope: 0.0000018859657
        tangentMode: 0
      - time: 0.16666667
        value: 0.00000049848825
        inSlope: -0.0000030273027
        outSlope: -0.0000030273027
        tangentMode: 0
      - time: 0.25
        value: -0.00000008186907
        inSlope: -0.0000049501346
        outSlope: -0.0000049501346
        tangentMode: 0
      - time: 0.33333334
        value: -0.00000032653418
        inSlope: -0.0000007172986
        outSlope: -0.0000007172986
        tangentMode: 0
      - time: 0.4166667
        value: -0.00000020141886
        inSlope: 0.0000031684522
        outSlope: 0.0000031684522
        tangentMode: 0
      - time: 0.5
        value: 0.00000020154114
        inSlope: 0.000004835521
        outSlope: 0.000004835521
        tangentMode: 0
      m_PreInfinity: 2
      m_PostInfinity: 2
      m_RotationOrder: 4
    attribute: m_LocalRotation.y
    path: Model_States/Character_Front/LLeg
    classID: 4
    script: {fileID: 0}
  - curve:
      serializedVersion: 2
      m_Curve:
      - time: 0
        value: -0.00000041343725
        inSlope: -0.0000049587557
        outSlope: -0.0000049587557
        tangentMode: 0
      - time: 0.083333336
        value: -0.0000008266669
        inSlope: -0.0000033350168
        outSlope: -0.0000033350168
        tangentMode: 0
      - time: 0.16666667
        value: -0.0000009692734
        inSlope: 0.000003994392
        outSlope: 0.000003994392
        tangentMode: 0
      - time: 0.25
        value: -0.000000160935
        inSlope: 0.0000086712425
        outSlope: 0.0000086712425
        tangentMode: 0
      - time: 0.33333334
        value: 0.0000004759337
        inSlope: 0.0000018625151
        outSlope: 0.0000018625151
        tangentMode: 0
      - time: 0.4166667
        value: 0.00000014948424
        inSlope: -0.0000061283395
        outSlope: -0.0000061283395
        tangentMode: 0
      - time: 0.5
        value: -0.0000005454561
        inSlope: -0.000008339286
        outSlope: -0.000008339286
        tangentMode: 0
      m_PreInfinity: 2
      m_PostInfinity: 2
      m_RotationOrder: 4
    attribute: m_LocalRotation.z
    path: Model_States/Character_Front/LLeg
    classID: 4
    script: {fileID: 0}
  - curve:
      serializedVersion: 2
      m_Curve:
      - time: 0
        value: 0.9914449
        inSlope: -0.21081376
        outSlope: -0.21081376
        tangentMode: 0
      - time: 0.083333336
        value: 0.9738771
        inSlope: -0.15311372
        outSlope: -0.15311372
        tangentMode: 0
      - time: 0.16666667
        value: 0.96592593
        inSlope: 0.14690138
        outSlope: 0.14690138
        tangentMode: 0
      - time: 0.25
        value: 0.99836063
        inSlope: 0.15311374
        outSlope: 0.15311374
        tangentMode: 0
      - time: 0.33333334
        value: 0.9914449
        inSlope: 0.0048168898
        outSlope: 0.0048168898
        tangentMode: 0
      - time: 0.4166667
        value: 0.99916345
        inSlope: -0.000000014901161
        outSlope: -0.000000014901161
        tangentMode: 0
      - time: 0.5
        value: 0.9914449
        inSlope: -0.09262278
        outSlope: -0.09262278
        tangentMode: 0
      m_PreInfinity: 2
      m_PostInfinity: 2
      m_RotationOrder: 4
    attribute: m_LocalRotation.w
    path: Model_States/Character_Front/LLeg
    classID: 4
    script: {fileID: 0}
  - curve:
      serializedVersion: 2
      m_Curve:
      - time: 0
        value: 0.13052595
        inSlope: 0.64222705
        outSlope: 0.64222705
        tangentMode: 0
      - time: 0.083333336
        value: 0.18404487
        inSlope: 0.72229046
        outSlope: 0.72229046
        tangentMode: 0
      - time: 0.16666667
        value: 0.2509077
        inSlope: 0.6315642
        outSlope: 0.6315642
        tangentMode: 0
      - time: 0.25
        value: 0.28930557
        inSlope: 0.04746601
        outSlope: 0.04746601
        tangentMode: 0
      - time: 0.33333334
        value: 0.2588187
        inSlope: -1.1721622
        outSlope: -1.1721622
        tangentMode: 0
      - time: 0.4166667
        value: 0.093945175
        inSlope: -2.3360696
        outSlope: -2.3360696
        tangentMode: 0
      - time: 0.5
        value: -0.13052621
        inSlope: -2.6936574
        outSlope: -2.6936574
        tangentMode: 0
      m_PreInfinity: 2
      m_PostInfinity: 2
      m_RotationOrder: 4
    attribute: m_LocalRotation.x
    path: Model_States/Character_Front/RLeg
    classID: 4
    script: {fileID: 0}
  - curve:
      serializedVersion: 2
      m_Curve:
      - time: 0
        value: 0.00000018416063
        inSlope: 0.0000015137913
        outSlope: 0.0000015137913
        tangentMode: 0
      - time: 0.083333336
        value: 0.0000003103099
        inSlope: 0.0000019148918
        outSlope: 0.0000019148918
        tangentMode: 0
      - time: 0.16666667
        value: 0.00000050330925
        inSlope: 0.0000018774169
        outSlope: 0.0000018774169
        tangentMode: 0
      - time: 0.25
        value: 0.0000006232127
        inSlope: -0.000000028925854
        outSlope: -0.000000028925854
        tangentMode: 0
      - time: 0.33333334
        value: 0.00000049848825
        inSlope: -0.0000036899896
        outSlope: -0.0000036899896
        tangentMode: 0
      - time: 0.4166667
        value: 0.000000008214341
        inSlope: -0.0000049501346
        outSlope: -0.0000049501346
        tangentMode: 0
      - time: 0.5
        value: -0.00000032653418
        inSlope: -0.000004016983
        outSlope: -0.000004016983
        tangentMode: 0
      m_PreInfinity: 2
      m_PostInfinity: 2
      m_RotationOrder: 4
    attribute: m_LocalRotation.y
    path: Model_States/Character_Front/RLeg
    classID: 4
    script: {fileID: 0}
  - curve:
      serializedVersion: 2
      m_Curve:
      - time: 0
        value: -0.00000041343725
        inSlope: -0.0000027216677
        outSlope: -0.0000027216677
        tangentMode: 0
      - time: 0.083333336
        value: -0.0000006402429
        inSlope: -0.0000030816027
        outSlope: -0.0000030816027
        tangentMode: 0
      - time: 0.16666667
        value: -0.0000009270377
        inSlope: -0.000002728627
        outSlope: -0.000002728627
        tangentMode: 0
      - time: 0.25
        value: -0.000001095014
        inSlope: -0.00000025341433
        outSlope: -0.00000025341433
        tangentMode: 0
      - time: 0.33333334
        value: -0.0000009692734
        inSlope: 0.000004742415
        outSlope: 0.000004742415
        tangentMode: 0
      - time: 0.4166667
        value: -0.00000030461138
        inSlope: 0.0000086712425
        outSlope: 0.0000086712425
        tangentMode: 0
      - time: 0.5
        value: 0.0000004759337
        inSlope: 0.000009366543
        outSlope: 0.000009366543
        tangentMode: 0
      m_PreInfinity: 2
      m_PostInfinity: 2
      m_RotationOrder: 4
    attribute: m_LocalRotation.z
    path: Model_States/Character_Front/RLeg
    classID: 4
    script: {fileID: 0}
  - curve:
      serializedVersion: 2
      m_Curve:
      - time: 0
        value: 0.9914449
        inSlope: -0.102324486
        outSlope: -0.102324486
        tangentMode: 0
      - time: 0.083333336
        value: 0.98291785
        inSlope: -0.14060318
        outSlope: -0.14060318
        tangentMode: 0
      - time: 0.16666667
        value: 0.968011
        inSlope: -0.15408611
        outSlope: -0.15408611
        tangentMode: 0
      - time: 0.25
        value: 0.9572368
        inSlope: -0.012510553
        outSlope: -0.012510553
        tangentMode: 0
      - time: 0.33333334
        value: 0.96592593
        inSlope: 0.23004338
        outSlope: 0.23004338
        tangentMode: 0
      - time: 0.4166667
        value: 0.9955774
        inSlope: 0.15311371
        outSlope: 0.15311371
        tangentMode: 0
      - time: 0.5
        value: 0.9914449
        inSlope: -0.049590122
        outSlope: -0.049590122
        tangentMode: 0
      m_PreInfinity: 2
      m_PostInfinity: 2
      m_RotationOrder: 4
    attribute: m_LocalRotation.w
    path: Model_States/Character_Front/RLeg
    classID: 4
    script: {fileID: 0}
  - curve:
      serializedVersion: 2
      m_Curve:
      - time: 0
        value: -0.13052621
        inSlope: -0.19445103
        outSlope: -0.19445103
        tangentMode: 0
      - time: 0.083333336
        value: -0.14673047
        inSlope: 0
        outSlope: 0
        tangentMode: 0
      - time: 0.16666667
        value: -0.13052621
        inSlope: 0.9785522
        outSlope: 0.9785522
        tangentMode: 0
      - time: 0.25
        value: 0.016361566
        inSlope: 1.566313
        outSlope: 1.566313
        tangentMode: 0
      - time: 0.33333334
        value: 0.13052595
        inSlope: 0.098143935
        outSlope: 0.098143935
        tangentMode: 0
      - time: 0.4166667
        value: 0.03271888
        inSlope: -1.566313
        outSlope: -1.566313
        tangentMode: 0
      - time: 0.5
        value: -0.13052621
        inSlope: -1.9589416
        outSlope: -1.9589416
        tangentMode: 0
      m_PreInfinity: 2
      m_PostInfinity: 2
      m_RotationOrder: 4
    attribute: m_LocalRotation.x
    path: Model_States/Character_Front/RArm
    classID: 4
    script: {fileID: 0}
  - curve:
      serializedVersion: 2
      m_Curve:
      - time: 0
        value: -0.0000001945153
        inSlope: -0.00000008296621
        outSlope: -0.00000008296621
        tangentMode: 0
      - time: 0.083333336
        value: -0.00000020142915
        inSlope: 0
        outSlope: 0
        tangentMode: 0
      - time: 0.16666667
        value: -0.0000001945153
        inSlope: 0.0000010088644
        outSlope: 0.0000010088644
        tangentMode: 0
      - time: 0.25
        value: -0.000000033285094
        inSlope: 0.0000022720556
        outSlope: 0.0000022720556
        tangentMode: 0
      - time: 0.33333334
        value: 0.00000018416063
        inSlope: -0.00000025109148
        outSlope: -0.00000025109148
        tangentMode: 0
      - time: 0.4166667
        value: -0.00000007513368
        inSlope: -0.0000029598853
        outSlope: -0.0000029598853
        tangentMode: 0
      - time: 0.5
        value: -0.00000030915356
        inSlope: -0.0000028082393
        outSlope: -0.0000028082393
        tangentMode: 0
      m_PreInfinity: 2
      m_PostInfinity: 2
      m_RotationOrder: 4
    attribute: m_LocalRotation.y
    path: Model_States/Character_Front/RArm
    classID: 4
    script: {fileID: 0}
  - curve:
      serializedVersion: 2
      m_Curve:
      - time: 0
        value: 0.0000004933143
        inSlope: 0.00000058126875
        outSlope: 0.00000058126875
        tangentMode: 0
      - time: 0.083333336
        value: 0.00000054175337
        inSlope: 0
        outSlope: 0
        tangentMode: 0
      - time: 0.16666667
        value: 0.0000004933143
        inSlope: -0.0000032472522
        outSlope: -0.0000032472522
        tangentMode: 0
      - time: 0.25
        value: 5.4473265e-10
        inSlope: -0.000005440509
        outSlope: -0.000005440509
        tangentMode: 0
      - time: 0.33333334
        value: -0.00000041343725
        inSlope: 0.000000061343826
        outSlope: 0.000000061343826
        tangentMode: 0
      - time: 0.4166667
        value: 0.000000010768742
        inSlope: 0.000006128339
        outSlope: 0.000006128339
        tangentMode: 0
      - time: 0.5
        value: 0.0000006079526
        inSlope: 0.0000071662075
        outSlope: 0.0000071662075
        tangentMode: 0
      m_PreInfinity: 2
      m_PostInfinity: 2
      m_RotationOrder: 4
    attribute: m_LocalRotation.z
    path: Model_States/Character_Front/RArm
    classID: 4
    script: {fileID: 0}
  - curve:
      serializedVersion: 2
      m_Curve:
      - time: 0
        value: 0.9914449
        inSlope: -0.027220488
        outSlope: -0.027220488
        tangentMode: 0
      - time: 0.083333336
        value: 0.9891765
        inSlope: 0
        outSlope: 0
        tangentMode: 0
      - time: 0.16666667
        value: 0.9914449
        inSlope: 0.0641377
        outSlope: 0.0641377
        tangentMode: 0
      - time: 0.25
        value: 0.9998661
        inSlope: 0.000000011175871
        outSlope: 0.000000011175871
        tangentMode: 0
      - time: 0.33333334
        value: 0.9914449
        inSlope: -0.002409339
        outSlope: -0.002409339
        tangentMode: 0
      - time: 0.4166667
        value: 0.9994646
        inSlope: -0.000000018626451
        outSlope: -0.000000018626451
        tangentMode: 0
      - time: 0.5
        value: 0.9914449
        inSlope: -0.09623625
        outSlope: -0.09623625
        tangentMode: 0
      m_PreInfinity: 2
      m_PostInfinity: 2
      m_RotationOrder: 4
    attribute: m_LocalRotation.w
    path: Model_States/Character_Front/RArm
    classID: 4
    script: {fileID: 0}
  - curve:
      serializedVersion: 2
      m_Curve:
      - time: 0
        value: 0.13052595
        inSlope: 0.19445229
        outSlope: 0.19445229
        tangentMode: 0
      - time: 0.083333336
        value: 0.1467303
        inSlope: 0.0000008046627
        outSlope: 0.0000008046627
        tangentMode: 0
      - time: 0.16666667
        value: 0.13052608
        inSlope: -0.97855246
        outSlope: -0.97855246
        tangentMode: 0
      - time: 0.25
        value: -0.01636175
        inSlope: -1.5663137
        outSlope: -1.5663137
        tangentMode: 0
      - time: 0.33333334
        value: -0.13052621
        inSlope: -0.09814477
        outSlope: -0.09814477
        tangentMode: 0
      - time: 0.4166667
        value: -0.03271921
        inSlope: 1.5663123
        outSlope: 1.5663123
        tangentMode: 0
      - time: 0.5
        value: 0.13052581
        inSlope: 1.9589407
        outSlope: 1.9589407
        tangentMode: 0
      m_PreInfinity: 2
      m_PostInfinity: 2
      m_RotationOrder: 4
    attribute: m_LocalRotation.x
    path: Model_States/Character_Front/LArm
    classID: 4
    script: {fileID: 0}
  - curve:
      serializedVersion: 2
      m_Curve:
      - time: 0
        value: 0.00000018416063
        inSlope: 0.00000047299312
        outSlope: 0.00000047299312
        tangentMode: 0
      - time: 0.083333336
        value: 0.00000022357672
        inSlope: 3.410605e-13
        outSlope: 3.410605e-13
        tangentMode: 0
      - time: 0.16666667
        value: 0.00000018416068
        inSlope: -0.0000019283361
        outSlope: -0.0000019283361
        tangentMode: 0
      - time: 0.25
        value: -0.000000097812624
        inSlope: -0.000002272056
        outSlope: -0.000002272056
        tangentMode: 0
      - time: 0.33333334
        value: -0.0000001945153
        inSlope: 0.0000002734671
        outSlope: 0.0000002734671
        tangentMode: 0
      - time: 0.4166667
        value: -0.000000052234768
        inSlope: 0.000003064169
        outSlope: 0.000003064169
        tangentMode: 0
      - time: 0.5
        value: 0.00000031617947
        inSlope: 0.000004420972
        outSlope: 0.000004420972
        tangentMode: 0
      m_PreInfinity: 2
      m_PostInfinity: 2
      m_RotationOrder: 4
    attribute: m_LocalRotation.y
    path: Model_States/Character_Front/LArm
    classID: 4
    script: {fileID: 0}
  - curve:
      serializedVersion: 2
      m_Curve:
      - time: 0
        value: -0.00000041343725
        inSlope: -0.0000007504934
        outSlope: -0.0000007504934
        tangentMode: 0
      - time: 0.083333336
        value: -0.00000047597837
        inSlope: 0
        outSlope: 0
        tangentMode: 0
      - time: 0.16666667
        value: -0.00000041343725
        inSlope: 0.0000035949797
        outSlope: 0.0000035949797
        tangentMode: 0
      - time: 0.25
        value: 0.00000012318489
        inSlope: 0.000005440509
        outSlope: 0.000005440509
        tangentMode: 0
      - time: 0.33333334
        value: 0.0000004933143
        inSlope: 0.00000034741902
        outSlope: 0.00000034741902
        tangentMode: 0
      - time: 0.4166667
        value: 0.00000018108807
        inSlope: -0.0000055447936
        outSlope: -0.0000055447936
        tangentMode: 0
      - time: 0.5
        value: -0.0000004308178
        inSlope: -0.0000073428723
        outSlope: -0.0000073428723
        tangentMode: 0
      m_PreInfinity: 2
      m_PostInfinity: 2
      m_RotationOrder: 4
    attribute: m_LocalRotation.z
    path: Model_States/Character_Front/LArm
    classID: 4
    script: {fileID: 0}
  - curve:
      serializedVersion: 2
      m_Curve:
      - time: 0
        value: 0.9914449
        inSlope: -0.027220488
        outSlope: -0.027220488
        tangentMode: 0
      - time: 0.083333336
        value: 0.9891765
        inSlope: 0
        outSlope: 0
        tangentMode: 0
      - time: 0.16666667
        value: 0.9914449
        inSlope: 0.0641377
        outSlope: 0.0641377
        tangentMode: 0
      - time: 0.25
        value: 0.9998661
        inSlope: 0.000000011175871
        outSlope: 0.000000011175871
        tangentMode: 0
      - time: 0.33333334
        value: 0.9914449
        inSlope: -0.002409339
        outSlope: -0.002409339
        tangentMode: 0
      - time: 0.4166667
        value: 0.9994646
        inSlope: -0.000000018626451
        outSlope: -0.000000018626451
        tangentMode: 0
      - time: 0.5
        value: 0.9914449
        inSlope: -0.09623625
        outSlope: -0.09623625
        tangentMode: 0
      m_PreInfinity: 2
      m_PostInfinity: 2
      m_RotationOrder: 4
    attribute: m_LocalRotation.w
    path: Model_States/Character_Front/LArm
    classID: 4
    script: {fileID: 0}
  m_EulerEditorCurves:
  - curve:
      serializedVersion: 2
      m_Curve:
      - time: 0
        value: -15
        inSlope: 0
        outSlope: 0
        tangentMode: 10
      - time: 0.16666667
        value: -15
        inSlope: 89.99991
        outSlope: 89.99991
        tangentMode: 10
      - time: 0.33333334
        value: 14.9999695
        inSlope: -0.0000076293945
        outSlope: -0.0000076293945
        tangentMode: 10
      - time: 0.5
        value: -15
        inSlope: -179.99983
        outSlope: -179.99983
        tangentMode: 10
      m_PreInfinity: 2
      m_PostInfinity: 2
      m_RotationOrder: 4
    attribute: localEulerAnglesBaked.x
    path: Model_States/Character_Front/RArm
    classID: 4
    script: {fileID: 0}
  - curve:
      serializedVersion: 2
      m_Curve:
      - time: 0
        value: -0.000030517578
        inSlope: 0
        outSlope: 0
        tangentMode: 10
      - time: 0.16666667
        value: -0.000030517578
        inSlope: 0.0001373291
        outSlope: 0.0001373291
        tangentMode: 10
      - time: 0.33333334
        value: 0.000015258789
        inSlope: -0.00004577638
        outSlope: -0.00004577638
        tangentMode: 10
      - time: 0.5
        value: -0.000045776367
        inSlope: -0.00036621097
        outSlope: -0.00036621097
        tangentMode: 10
      m_PreInfinity: 2
      m_PostInfinity: 2
      m_RotationOrder: 4
    attribute: localEulerAnglesBaked.y
    path: Model_States/Character_Front/RArm
    classID: 4
    script: {fileID: 0}
  - curve:
      serializedVersion: 2
      m_Curve:
      - time: 0
        value: 0.000061035156
        inSlope: 0
        outSlope: 0
        tangentMode: 10
      - time: 0.16666667
        value: 0.000061035156
        inSlope: -0.00032043457
        outSlope: -0.00032043457
        tangentMode: 10
      - time: 0.33333334
        value: -0.000045776367
        inSlope: 0.000045776396
        outSlope: 0.000045776396
        tangentMode: 10
      - time: 0.5
        value: 0.000076293945
        inSlope: 0.00073242193
        outSlope: 0.00073242193
        tangentMode: 10
      m_PreInfinity: 2
      m_PostInfinity: 2
      m_RotationOrder: 4
    attribute: localEulerAnglesBaked.z
    path: Model_States/Character_Front/RArm
    classID: 4
    script: {fileID: 0}
  - curve:
      serializedVersion: 2
      m_Curve:
      - time: 0
        value: 14.9999695
        inSlope: 89.99991
        outSlope: 89.99991
        tangentMode: 10
      - time: 0.16666667
        value: 29.999954
        inSlope: -89.99991
        outSlope: -89.99991
        tangentMode: 10
      - time: 0.33333334
        value: -15
        inSlope: -44.999992
        outSlope: -44.999992
        tangentMode: 10
      - time: 0.5
        value: 14.999954
        inSlope: 179.99974
        outSlope: 179.99974
        tangentMode: 10
      m_PreInfinity: 2
      m_PostInfinity: 2
      m_RotationOrder: 4
    attribute: localEulerAnglesBaked.x
    path: Model_States/Character_Front/LLeg
    classID: 4
    script: {fileID: 0}
  - curve:
      serializedVersion: 2
      m_Curve:
      - time: 0
        value: 0.000015258789
        inSlope: 0.000091552734
        outSlope: 0.000091552734
        tangentMode: 10
      - time: 0.16666667
        value: 0.000030517578
        inSlope: -0.00018310547
        outSlope: -0.00018310547
        tangentMode: 10
      - time: 0.33333334
        value: -0.000045776367
        inSlope: -0.000045776353
        outSlope: -0.000045776353
        tangentMode: 10
      - time: 0.5
        value: 0.000015258789
        inSlope: 0.00036621097
        outSlope: 0.00036621097
        tangentMode: 10
      m_PreInfinity: 2
      m_PostInfinity: 2
      m_RotationOrder: 4
    attribute: localEulerAnglesBaked.y
    path: Model_States/Character_Front/LLeg
    classID: 4
    script: {fileID: 0}
  - curve:
      serializedVersion: 2
      m_Curve:
      - time: 0
        value: -0.000045776367
        inSlope: -0.00036621094
        outSlope: -0.00036621094
        tangentMode: 10
      - time: 0.16666667
        value: -0.00010681152
        inSlope: 0.00032043457
        outSlope: 0.00032043457
        tangentMode: 10
      - time: 0.33333334
        value: 0.000061035156
        inSlope: 0.00013732907
        outSlope: 0.00013732907
        tangentMode: 10
      - time: 0.5
        value: -0.000061035156
        inSlope: -0.00073242193
        outSlope: -0.00073242193
        tangentMode: 10
      m_PreInfinity: 2
      m_PostInfinity: 2
      m_RotationOrder: 4
    attribute: localEulerAnglesBaked.z
    path: Model_States/Character_Front/LLeg
    classID: 4
    script: {fileID: 0}
  - curve:
      serializedVersion: 2
      m_Curve:
      - time: 0
        value: 14.9999695
        inSlope: 0.000091552734
        outSlope: 0.000091552734
        tangentMode: 10
      - time: 0.16666667
        value: 14.999985
        inSlope: -89.99991
        outSlope: -89.99991
        tangentMode: 10
      - time: 0.33333334
        value: -15
        inSlope: -0.00008392334
        outSlope: -0.00008392334
        tangentMode: 10
      - time: 0.5
        value: 14.999954
        inSlope: 179.99974
        outSlope: 179.99974
        tangentMode: 10
      m_PreInfinity: 2
      m_PostInfinity: 2
      m_RotationOrder: 4
    attribute: localEulerAnglesBaked.x
    path: Model_States/Character_Front/LArm
    classID: 4
    script: {fileID: 0}
  - curve:
      serializedVersion: 2
      m_Curve:
      - time: 0
        value: 0.000015258789
        inSlope: 0
        outSlope: 0
        tangentMode: 10
      - time: 0.16666667
        value: 0.000015258789
        inSlope: -0.0001373291
        outSlope: -0.0001373291
        tangentMode: 10
      - time: 0.33333334
        value: -0.000030517578
        inSlope: 0.00004577638
        outSlope: 0.00004577638
        tangentMode: 10
      - time: 0.5
        value: 0.000030517578
        inSlope: 0.00036621097
        outSlope: 0.00036621097
        tangentMode: 10
      m_PreInfinity: 2
      m_PostInfinity: 2
      m_RotationOrder: 4
    attribute: localEulerAnglesBaked.y
    path: Model_States/Character_Front/LArm
    classID: 4
    script: {fileID: 0}
  - curve:
      serializedVersion: 2
      m_Curve:
      - time: 0
        value: -0.000045776367
        inSlope: 0
        outSlope: 0
        tangentMode: 10
      - time: 0.16666667
        value: -0.000045776367
        inSlope: 0.00032043457
        outSlope: 0.00032043457
        tangentMode: 10
      - time: 0.33333334
        value: 0.000061035156
        inSlope: -2.910383e-11
        outSlope: -2.910383e-11
        tangentMode: 10
      - time: 0.5
        value: -0.000045776367
        inSlope: -0.0006408692
        outSlope: -0.0006408692
        tangentMode: 10
      m_PreInfinity: 2
      m_PostInfinity: 2
      m_RotationOrder: 4
    attribute: localEulerAnglesBaked.z
    path: Model_States/Character_Front/LArm
    classID: 4
    script: {fileID: 0}
  - curve:
      serializedVersion: 2
      m_Curve:
      - time: 0
        value: 14.9999695
        inSlope: 44.999954
        outSlope: 44.999954
        tangentMode: 10
      - time: 0.33333334
        value: 29.999954
        inSlope: -112.4999
        outSlope: -112.4999
        tangentMode: 10
      - time: 0.5
        value: -15
        inSlope: -269.99976
        outSlope: -269.99976
        tangentMode: 10
      m_PreInfinity: 2
      m_PostInfinity: 2
      m_RotationOrder: 4
    attribute: localEulerAnglesBaked.x
    path: Model_States/Character_Front/RLeg
    classID: 4
    script: {fileID: 0}
  - curve:
      serializedVersion: 2
      m_Curve:
      - time: 0
        value: 0.000015258789
        inSlope: 0.000045776367
        outSlope: 0.000045776367
        tangentMode: 10
      - time: 0.33333334
        value: 0.000030517578
        inSlope: -0.00020599367
        outSlope: -0.00020599367
        tangentMode: 10
      - time: 0.5
        value: -0.000045776367
        inSlope: -0.0004577637
        outSlope: -0.0004577637
        tangentMode: 10
      m_PreInfinity: 2
      m_PostInfinity: 2
      m_RotationOrder: 4
    attribute: localEulerAnglesBaked.y
    path: Model_States/Character_Front/RLeg
    classID: 4
    script: {fileID: 0}
  - curve:
      serializedVersion: 2
      m_Curve:
      - time: 0
        value: -0.000045776367
        inSlope: -0.00018310547
        outSlope: -0.00018310547
        tangentMode: 10
      - time: 0.33333334
        value: -0.00010681152
        inSlope: 0.00041198736
        outSlope: 0.00041198736
        tangentMode: 10
      - time: 0.5
        value: 0.000061035156
        inSlope: 0.0010070802
        outSlope: 0.0010070802
        tangentMode: 10
      m_PreInfinity: 2
      m_PostInfinity: 2
      m_RotationOrder: 4
    attribute: localEulerAnglesBaked.z
    path: Model_States/Character_Front/RLeg
    classID: 4
    script: {fileID: 0}
  m_HasGenericRootTransform: 0
  m_HasMotionFloatCurves: 0
  m_GenerateMotionCurves: 0
  m_Events: []
