%YAML 1.1
%TAG !u! tag:unity3d.com,2011:
--- !u!21 &2100000
Material:
  serializedVersion: 6
  m_ObjectHideFlags: 0
  m_PrefabParentObject: {fileID: 0}
  m_PrefabInternal: {fileID: 0}
  m_Name: Mat_Debug_Olding
  m_Shader: {fileID: 4800000, guid: 42e260cc06bc63d40ac71a330d376322, type: 3}
  m_ShaderKeywords: 
  m_LightmapFlags: 5
  m_CustomRenderQueue: 2000
  stringTagMap: {}
  m_SavedProperties:
    serializedVersion: 2
    m_TexEnvs:
      data:
        first:
          name: _MainTex
        second:
          m_Texture: {fileID: 2800000, guid: 6c6d290feb641f649b4782c3427f514f, type: 3}
          m_Scale: {x: 1, y: 1}
          m_Offset: {x: 0, y: 0}
      data:
        first:
          name: _BumpMap
        second:
          m_Texture: {fileID: 0}
          m_Scale: {x: 1, y: 1}
          m_Offset: {x: 0, y: 0}
      data:
        first:
          name: _DetailNormalMap
        second:
          m_Texture: {fileID: 0}
          m_Scale: {x: 1, y: 1}
          m_Offset: {x: 0, y: 0}
      data:
        first:
          name: _Control
        second:
          m_Texture: {fileID: 0}
          m_Scale: {x: 1, y: 1}
          m_Offset: {x: 0, y: 0}
      data:
        first:
          name: _Splat0
        second:
          m_Texture: {fileID: 0}
          m_Scale: {x: 1, y: 1}
          m_Offset: {x: 0, y: 0}
      data:
        first:
          name: _Splat1
        second:
          m_Texture: {fileID: 0}
          m_Scale: {x: 1, y: 1}
          m_Offset: {x: 0, y: 0}
      data:
        first:
          name: _Splat2
        second:
          m_Texture: {fileID: 0}
          m_Scale: {x: 1, y: 1}
          m_Offset: {x: 0, y: 0}
      data:
        first:
          name: _Splat3
        second:
          m_Texture: {fileID: 0}
          m_Scale: {x: 1, y: 1}
          m_Offset: {x: 0, y: 0}
      data:
        first:
          name: _Normal0
        second:
          m_Texture: {fileID: 0}
          m_Scale: {x: 1, y: 1}
          m_Offset: {x: 0, y: 0}
      data:
        first:
          name: _Normal1
        second:
          m_Texture: {fileID: 0}
          m_Scale: {x: 1, y: 1}
          m_Offset: {x: 0, y: 0}
      data:
        first:
          name: _Normal2
        second:
          m_Texture: {fileID: 0}
          m_Scale: {x: 1, y: 1}
          m_Offset: {x: 0, y: 0}
      data:
        first:
          name: _Normal3
        second:
          m_Texture: {fileID: 0}
          m_Scale: {x: 1, y: 1}
          m_Offset: {x: 0, y: 0}
      data:
        first:
          name: _ParallaxMap
        second:
          m_Texture: {fileID: 0}
          m_Scale: {x: 1, y: 1}
          m_Offset: {x: 0, y: 0}
      data:
        first:
          name: _CurTex
        second:
          m_Texture: {fileID: 0}
          m_Scale: {x: 1, y: 1}
          m_Offset: {x: 0, y: 0}
      data:
        first:
          name: _MainTexBlurred
        second:
          m_Texture: {fileID: 0}
          m_Scale: {x: 1, y: 1}
          m_Offset: {x: 0, y: 0}
      data:
        first:
          name: _AltText
        second:
          m_Texture: {fileID: 0}
          m_Scale: {x: 1, y: 1}
          m_Offset: {x: 0, y: 0}
      data:
        first:
          name: _AltHeightmap
        second:
          m_Texture: {fileID: 0}
          m_Scale: {x: 1, y: 1}
          m_Offset: {x: 0, y: 0}
      data:
        first:
          name: _RgbTex
        second:
          m_Texture: {fileID: 0}
          m_Scale: {x: 1, y: 1}
          m_Offset: {x: 0, y: 0}
      data:
        first:
          name: _ColorBuffer
        second:
          m_Texture: {fileID: 0}
          m_Scale: {x: 1, y: 1}
          m_Offset: {x: 0, y: 0}
      data:
        first:
          name: _ZCurve
        second:
          m_Texture: {fileID: 0}
          m_Scale: {x: 1, y: 1}
          m_Offset: {x: 0, y: 0}
      data:
        first:
          name: _RgbDepthTex
        second:
          m_Texture: {fileID: 0}
          m_Scale: {x: 1, y: 1}
          m_Offset: {x: 0, y: 0}
      data:
        first:
          name: _RampTex
        second:
          m_Texture: {fileID: 0}
          m_Scale: {x: 1, y: 1}
          m_Offset: {x: 0, y: 0}
      data:
        first:
          name: _NoiseTex
        second:
          m_Texture: {fileID: 0}
          m_Scale: {x: 1, y: 1}
          m_Offset: {x: 0, y: 0}
      data:
        first:
          name: _Overlay
        second:
          m_Texture: {fileID: 0}
          m_Scale: {x: 1, y: 1}
          m_Offset: {x: 0, y: 0}
      data:
        first:
          name: _Skybox
        second:
          m_Texture: {fileID: 0}
          m_Scale: {x: 1, y: 1}
          m_Offset: {x: 0, y: 0}
      data:
        first:
          name: _HrDepthTex
        second:
          m_Texture: {fileID: 0}
          m_Scale: {x: 1, y: 1}
          m_Offset: {x: 0, y: 0}
      data:
        first:
          name: _LrDepthTex
        second:
          m_Texture: {fileID: 0}
          m_Scale: {x: 1, y: 1}
          m_Offset: {x: 0, y: 0}
      data:
        first:
          name: _AdaptTex
        second:
          m_Texture: {fileID: 0}
          m_Scale: {x: 1, y: 1}
          m_Offset: {x: 0, y: 0}
      data:
        first:
          name: _OcclusionMap
        second:
          m_Texture: {fileID: 0}
          m_Scale: {x: 1, y: 1}
          m_Offset: {x: 0, y: 0}
      data:
        first:
          name: _EmissionMap
        second:
          m_Texture: {fileID: 0}
          m_Scale: {x: 1, y: 1}
          m_Offset: {x: 0, y: 0}
      data:
        first:
          name: _DetailMask
        second:
          m_Texture: {fileID: 2800000, guid: 7a632f967e8ad42f5bd275898151ab6a, type: 3}
          m_Scale: {x: 1, y: 1}
          m_Offset: {x: 0, y: 0}
      data:
        first:
          name: _DetailAlbedoMap
        second:
          m_Texture: {fileID: 0}
          m_Scale: {x: 1, y: 1}
          m_Offset: {x: 0, y: 0}
      data:
        first:
          name: _MetallicGlossMap
        second:
          m_Texture: {fileID: 0}
          m_Scale: {x: 1, y: 1}
          m_Offset: {x: 0, y: 0}
    m_Floats:
      data:
        first:
          name: _SrcBlend
        second: 1
      data:
        first:
          name: _DstBlend
        second: 0
      data:
        first:
          name: _Cutoff
        second: 0.5
      data:
        first:
          name: _Metallic0
        second: 0
      data:
        first:
          name: _Metallic1
        second: 0
      data:
        first:
          name: _Metallic2
        second: 0
      data:
        first:
          name: _Metallic3
        second: 0
      data:
        first:
          name: _Smoothness0
        second: 1
      data:
        first:
          name: _Smoothness1
        second: 1
      data:
        first:
          name: _Smoothness2
        second: 1
      data:
        first:
          name: _Smoothness3
        second: 1
      data:
        first:
          name: _Parallax
        second: 0.02
      data:
        first:
          name: _Glossiness
        second: 0.5
      data:
        first:
          name: _Metallic
        second: 0
      data:
        first:
          name: _Degradation
        second: 0.385
      data:
        first:
          name: _DegradationEvolutionRatio
        second: 0.1
      data:
        first:
          name: _ZWrite
        second: 1
      data:
        first:
          name: _BumpScale
        second: 1
      data:
        first:
          name: _OcclusionStrength
        second: 1
      data:
        first:
          name: _DetailNormalMapScale
        second: 1
      data:
        first:
          name: _UVSec
        second: 0
      data:
        first:
          name: _Mode
        second: 0
    m_Colors:
      data:
        first:
          name: _EmissionColor
        second: {r: 0, g: 0, b: 0, a: 1}
      data:
        first:
          name: _Color
        second: {r: 1, g: 1, b: 1, a: 1}
